id,name,model_id:id,group_id:id,perm_read,perm_write,perm_create,perm_unlink
access_account_move_compensation,modelo account_move_compensation,model_account_move_compensation,account.group_account_invoice,1,1,1,1
access_account_move_compensation_payable_line,modelo account_move_compensation_payable_line,model_account_move_compensation_payable_line,account.group_account_invoice,1,1,1,1
access_account_move_compensation_receivable_line,modelo account_move_compensation_receivable_line,model_account_move_compensation_receivable_line,account.group_account_invoice,1,1,1,1
